[
  {
    "hinh_id": 1,
    "ten_hinh": "the flash",
    "duong_dan": "1690101959158_the_flash.jpg",
    "mo_ta": "hay ",
    "nguoi_dung_id": 1
  },
  {
    "hinh_id": 2,
    "ten_hinh": "Hình 1",
    "duong_dan": "duongdan1.jpg",
    "mo_ta": "Hình 1 mô tả",
    "nguoi_dung_id": 1
  },
  {
    "hinh_id": 3,
    "ten_hinh": "Hình 2",
    "duong_dan": "duongdan2.jpg",
    "mo_ta": "Hình 2 mô tả",
    "nguoi_dung_id": 1
  },
  {
    "hinh_id": 4,
    "ten_hinh": "Hình 3",
    "duong_dan": "duongdan3.jpg",
    "mo_ta": "Hình 3 mô tả",
    "nguoi_dung_id": 2
  },
  {
    "hinh_id": 5,
    "ten_hinh": "Hình 4",
    "duong_dan": "duongdan4.jpg",
    "mo_ta": "Hình 4 mô tả",
    "nguoi_dung_id": 2
  },
  {
    "hinh_id": 6,
    "ten_hinh": "Hình 5",
    "duong_dan": "duongdan5.jpg",
    "mo_ta": "Hình 5 mô tả",
    "nguoi_dung_id": 3
  },
  {
    "hinh_id": 7,
    "ten_hinh": "Hình 6",
    "duong_dan": "duongdan6.jpg",
    "mo_ta": "Hình 6 mô tả",
    "nguoi_dung_id": 3
  },
  {
    "hinh_id": 8,
    "ten_hinh": "Hình 7",
    "duong_dan": "duongdan7.jpg",
    "mo_ta": "Hình 7 mô tả",
    "nguoi_dung_id": 4
  },
  {
    "hinh_id": 9,
    "ten_hinh": "Hình 8",
    "duong_dan": "duongdan8.jpg",
    "mo_ta": "Hình 8 mô tả",
    "nguoi_dung_id": 4
  }
]